Tennis Sets - Jimmy's Theorem - Blog on Astro-statistics
…
#pick out just the 2 set games
two_sets = atp %>% 
  filter(is.na(Set3)) 

#weed out matches with retirements
scores <-  names(table(two_sets$Set1)[table(two_sets$Set1)/length(two_sets$Set1)>0.005])
two_sets <- two_sets %>% 
  filter(Set1 %in% scores, Set2 %in% scores)

#show a little table to see what the frame looks like
two_sets

## # A tibble: 45,616 x 5
##    Set1  Set2  Set3  tourney_date  year
##    <chr> <chr> <chr>        <dbl> <dbl>
##  1 7-6   6-1   <NA>      19900305  1990
##  2 7-5   6-0   <NA>      19900305  1990
##  3 6-2   6-1   <NA>      19900305  1990
##  4 6-1   6-0   <NA>      19900305  1990
##  5 6-3   7-5   <NA>      19900305  1990
##  6 6-4   6-4   <NA>      19900305  1990
##  7 6-4   6-2   <NA>      19900305  1990
##  8 6-4   7-5   <NA>      19900305  1990
##  9 6-3   6-2   <NA>      19900305  1990
## 10 6-2   7-6   <NA>      19900305  1990
## # … with 45,606 more rows
…
